{
    "$schema": "http://json-schema.org/draft-04/schema#",
    "title": "PARAMS: tempy_reff.atomic_model_refine.gmm",
    "description": "All atom based flexible fitting with TEMPy-ReFF",
    "type": "object",
    "properties": {
        "input_model": {
            "description": "Input model",
            "type": "string"
        },
        "input_map": {
            "description": "Input map",
            "type": "string"
        },
        "resolution": {
            "description": "Resolution",
            "type": "number"
        },
        "force_gmm": {
            "description": "Weight of GMM fit",
            "type": "number"
        },
        "convergence_type": {
            "description": "Convergence method",
            "type": "string"
        },
        "convergence_threshold": {
            "description": "Convergence threshold",
            "type": "number"
        },
        "convergence_patience": {
            "description": "Steps for convergence",
            "type": "integer"
        },
        "convergence_timeout": {
            "description": "Timeout steps",
            "type": "integer"
        },
        "use_gpu": {
            "description": "Use GPU?",
            "type": "boolean"
        },
        "do_queue": {
            "description": "Submit to queue?",
            "type": "boolean"
        },
        "queuename": {
            "description": "Queue name:",
            "type": "string"
        },
        "qsub": {
            "description": "Queue submit command:",
            "type": "string"
        },
        "qsubscript": {
            "description": "Standard submission script:",
            "type": "string"
        },
        "min_dedicated": {
            "description": "Minimum dedicated cores per node:",
            "type": "integer"
        }
    }
}