{
    "$schema": "http://json-schema.org/draft-04/schema#",
    "title": "PARAMS: cryoef.map_analysis",
    "description": "Analyse distribution of particle orientations",
    "type": "object",
    "properties": {
        "input_file": {
            "description": "Input file name:",
            "type": "string"
        },
        "b_factor": {
            "description": "B-factor:",
            "type": "number"
        },
        "particle_diameter_ang": {
            "description": "Particle diameter:",
            "type": "number"
        },
        "box_size_px": {
            "description": "Box size:",
            "type": "integer"
        },
        "resolution": {
            "description": "Resolution:",
            "type": "number"
        },
        "symmetry": {
            "description": "Symmetry:",
            "type": "string"
        },
        "angular_acc": {
            "description": "Angular accuracy:",
            "type": "number"
        },
        "max_tilt_angle": {
            "description": "Maximum tilt angle:",
            "type": "number"
        },
        "do_queue": {
            "description": "Submit to queue?",
            "type": "boolean"
        },
        "queuename": {
            "description": "Queue name:",
            "type": "string"
        },
        "qsub": {
            "description": "Queue submit command:",
            "type": "string"
        },
        "qsubscript": {
            "description": "Standard submission script:",
            "type": "string"
        },
        "min_dedicated": {
            "description": "Minimum dedicated cores per node:",
            "type": "integer"
        },
        "other_args": {
            "description": "Additional arguments:",
            "type": "string"
        }
    }
}