{
    "$schema": "http://json-schema.org/draft-04/schema#",
    "title": "PARAMS: gemmi.atomic_model_utilities.model_to_map",
    "description": "Convert atomic model to map",
    "type": "object",
    "properties": {
        "input_model": {
            "description": "Input model",
            "type": "string"
        },
        "resolution": {
            "description": "Resolution",
            "type": "number"
        },
        "reference_map": {
            "description": "Reference map",
            "type": "string"
        },
        "ref_aligned": {
            "description": "Reference map aligned?",
            "type": "boolean"
        },
        "cell_x": {
            "description": "Cell x",
            "type": "number"
        },
        "cell_y": {
            "description": "Cell y",
            "type": "number"
        },
        "cell_z": {
            "description": "Cell z",
            "type": "number"
        },
        "do_queue": {
            "description": "Submit to queue?",
            "type": "boolean"
        },
        "queuename": {
            "description": "Queue name:",
            "type": "string"
        },
        "qsub": {
            "description": "Queue submit command:",
            "type": "string"
        },
        "qsubscript": {
            "description": "Standard submission script:",
            "type": "string"
        },
        "min_dedicated": {
            "description": "Minimum dedicated cores per node:",
            "type": "integer"
        }
    }
}