{
    "$schema": "http://json-schema.org/draft-04/schema#",
    "title": "PARAMS: pipeliner.fetch.sequence",
    "description": "Get fasta sequence file for PDB or UNIPROT entry",
    "type": "object",
    "properties": {
        "pdb_id": {
            "description": "PDB ID number",
            "type": "string"
        },
        "uniprot_id": {
            "description": "UNIPROT accession number",
            "type": "string"
        }
    }
}