{
    "$schema": "http://json-schema.org/draft-04/schema#",
    "title": "PARAMS: relion.localres.own",
    "description": "Calculate local resolution using RELION",
    "type": "object",
    "properties": {
        "fn_in": {
            "description": "One of the 2 unfiltered half-maps:",
            "type": "string"
        },
        "angpix": {
            "description": "Calibrated pixel size (A)",
            "type": "number"
        },
        "fn_mask": {
            "description": "User-provided solvent mask:",
            "type": "string"
        },
        "adhoc_bfac": {
            "description": "User-provided B-factor:",
            "type": "number"
        },
        "fn_mtf": {
            "description": "MTF of the detector (STAR file)",
            "type": "string"
        },
        "nr_mpi": {
            "description": "Number of MPI procs:",
            "type": "integer"
        },
        "mpi_command": {
            "description": "MPI run command:",
            "type": "string"
        },
        "do_queue": {
            "description": "Submit to queue?",
            "type": "boolean"
        },
        "queuename": {
            "description": "Queue name:",
            "type": "string"
        },
        "qsub": {
            "description": "Queue submit command:",
            "type": "string"
        },
        "qsubscript": {
            "description": "Standard submission script:",
            "type": "string"
        },
        "min_dedicated": {
            "description": "Minimum dedicated cores per node:",
            "type": "integer"
        },
        "other_args": {
            "description": "Additional arguments:",
            "type": "string"
        }
    }
}