{
    "$schema": "http://json-schema.org/draft-04/schema#",
    "title": "PARAMS: confidencemap.map_analysis",
    "description": "Thresholding by FDR control",
    "type": "object",
    "properties": {
        "input_map": {
            "description": "Input map",
            "type": "string"
        },
        "window_size": {
            "description": "Window size",
            "type": "integer"
        },
        "noise_box_coordx": {
            "description": "Noise box coordinate X",
            "type": "number"
        },
        "noise_box_coordy": {
            "description": "Noise box coordinate Y",
            "type": "number"
        },
        "noise_box_coordz": {
            "description": "Noise box coordinate Z",
            "type": "number"
        },
        "apix": {
            "description": "Apix",
            "type": "number"
        },
        "meanMap": {
            "description": "Mean map",
            "type": "string"
        },
        "varianceMap": {
            "description": "Variance map",
            "type": "string"
        },
        "locResMap": {
            "description": "Local resolution map",
            "type": "string"
        },
        "method": {
            "description": "Method",
            "type": "string"
        },
        "test_proc": {
            "description": "Test procedure",
            "type": "string"
        },
        "lowPassFilter": {
            "description": "Low-pass filter to",
            "type": "number"
        },
        "ecdf": {
            "description": "Use ECDF?",
            "type": "boolean"
        },
        "do_queue": {
            "description": "Submit to queue?",
            "type": "boolean"
        },
        "queuename": {
            "description": "Queue name:",
            "type": "string"
        },
        "qsub": {
            "description": "Queue submit command:",
            "type": "string"
        },
        "qsubscript": {
            "description": "Standard submission script:",
            "type": "string"
        },
        "min_dedicated": {
            "description": "Minimum dedicated cores per node:",
            "type": "integer"
        }
    }
}