{
    "$schema": "http://json-schema.org/draft-04/schema#",
    "title": "PARAMS: relion.motioncorr.motioncor2",
    "description": "Motion correct and merge multi-frame movies using MotionCor2",
    "type": "object",
    "properties": {
        "input_star_mics": {
            "description": "Input movies STAR file:",
            "type": "string"
        },
        "first_frame_sum": {
            "description": "First frame for corrected sum:",
            "type": "integer"
        },
        "last_frame_sum": {
            "description": "Last frame for corrected sum:",
            "type": "integer"
        },
        "eer_grouping": {
            "description": "EER fractionation:",
            "type": "integer"
        },
        "bfactor": {
            "description": "Bfactor:",
            "type": "number"
        },
        "patch_x": {
            "description": "Number of patches X:",
            "type": "integer"
        },
        "patch_y": {
            "description": "Number of patches Y:",
            "type": "integer"
        },
        "group_frames": {
            "description": "Group frames:",
            "type": "integer"
        },
        "bin_factor": {
            "description": "Binning factor:",
            "type": "number"
        },
        "fn_gain_ref": {
            "description": "Gain-reference image:",
            "type": "string"
        },
        "gain_rot": {
            "description": "Gain rotation:",
            "type": "string"
        },
        "gain_flip": {
            "description": "Gain flip:",
            "type": "string"
        },
        "fn_defect": {
            "description": "Defect file:",
            "type": "string"
        },
        "do_dose_weighting": {
            "description": "Do dose-weighting?",
            "type": "boolean"
        },
        "do_save_noDW": {
            "description": "Save non-dose weighted as well?",
            "type": "boolean"
        },
        "dose_per_frame": {
            "description": "Dose per frame (e/A2):",
            "type": "number"
        },
        "pre_exposure": {
            "description": "Pre-exposure (e/A2):",
            "type": "number"
        },
        "other_motioncor2_args": {
            "description": "Other MOTIONCOR2 arguments",
            "type": "string"
        },
        "gpu_ids": {
            "description": "Which GPUs to use:",
            "type": "string"
        },
        "nr_mpi": {
            "description": "Number of MPI procs:",
            "type": "integer"
        },
        "nr_threads": {
            "description": "Number of threads:",
            "type": "integer"
        },
        "do_queue": {
            "description": "Submit to queue?",
            "type": "boolean"
        },
        "queuename": {
            "description": "Queue name:",
            "type": "string"
        },
        "qsub": {
            "description": "Queue submit command:",
            "type": "string"
        },
        "qsubscript": {
            "description": "Standard submission script:",
            "type": "string"
        },
        "min_dedicated": {
            "description": "Minimum dedicated cores per node:",
            "type": "integer"
        },
        "other_args": {
            "description": "Additional arguments:",
            "type": "string"
        },
        "validate_output": {
            "description": "Validate output files?",
            "type": "boolean"
        },
        "mpi_command": {
            "description": "MPI run command:",
            "type": "string"
        }
    }
}