{
    "$schema": "http://json-schema.org/draft-04/schema#",
    "title": "PARAMS: relion.joinstar.micrographs",
    "description": "Join multiple micrograph STAR files into a single file",
    "type": "object",
    "properties": {
        "fn_mics": {
            "description": "Micrograph STAR files:",
            "type": "string"
        },
        "do_queue": {
            "description": "Submit to queue?",
            "type": "boolean"
        },
        "queuename": {
            "description": "Queue name:",
            "type": "string"
        },
        "qsub": {
            "description": "Queue submit command:",
            "type": "string"
        },
        "qsubscript": {
            "description": "Standard submission script:",
            "type": "string"
        },
        "min_dedicated": {
            "description": "Minimum dedicated cores per node:",
            "type": "integer"
        },
        "other_args": {
            "description": "Additional arguments:",
            "type": "string"
        }
    }
}