{
    "$schema": "http://json-schema.org/draft-04/schema#",
    "title": "PARAMS: relion.autopick.log",
    "description": "Reference-free Laplacian of Gaussian autopicking",
    "type": "object",
    "properties": {
        "fn_input_autopick": {
            "description": "Input micrographs for autopick:",
            "type": "string"
        },
        "angpix": {
            "description": "Pixel size in micrographs (A)",
            "type": "number"
        },
        "log_diam_min": {
            "description": "Min. diameter for LoG filter (A)",
            "type": "number"
        },
        "log_diam_max": {
            "description": "Max. diameter for LoG filter (A)",
            "type": "number"
        },
        "log_invert": {
            "description": "Are the particles white?",
            "type": "boolean"
        },
        "log_maxres": {
            "description": "Maximum resolution to consider (A)",
            "type": "number"
        },
        "log_adjust_thr": {
            "description": "Adjust default threshold (stddev):",
            "type": "number"
        },
        "log_upper_thr": {
            "description": "Upper threshold (stddev):",
            "type": "number"
        },
        "do_write_fom_maps": {
            "description": "Write FOM maps?",
            "type": "boolean"
        },
        "do_read_fom_maps": {
            "description": "Read FOM maps?",
            "type": "boolean"
        },
        "nr_mpi": {
            "description": "Number of MPI procs:",
            "type": "integer"
        },
        "do_queue": {
            "description": "Submit to queue?",
            "type": "boolean"
        },
        "queuename": {
            "description": "Queue name:",
            "type": "string"
        },
        "qsub": {
            "description": "Queue submit command:",
            "type": "string"
        },
        "qsubscript": {
            "description": "Standard submission script:",
            "type": "string"
        },
        "min_dedicated": {
            "description": "Minimum dedicated cores per node:",
            "type": "integer"
        },
        "other_args": {
            "description": "Additional arguments:",
            "type": "string"
        },
        "mpi_command": {
            "description": "MPI run command:",
            "type": "string"
        }
    }
}