{
    "$schema": "http://json-schema.org/draft-04/schema#",
    "title": "PARAMS: relion.select.onvalue",
    "description": "Select images based on min/max values of a STAR file metadata value",
    "type": "object",
    "properties": {
        "fn_model": {
            "description": "Select classes from optimiser.star:",
            "type": "string"
        },
        "fn_mic": {
            "description": "OR select from micrographs.star:",
            "type": "string"
        },
        "fn_data": {
            "description": "OR select from particles.star:",
            "type": "string"
        },
        "select_label": {
            "description": "Metadata label for subset selection:",
            "type": "string"
        },
        "select_minval": {
            "description": "Minimum metadata value:",
            "type": "number"
        },
        "select_maxval": {
            "description": "Maximum metadata value:",
            "type": "number"
        },
        "do_regroup": {
            "description": "Regroup the particles?",
            "type": "boolean"
        },
        "nr_groups": {
            "description": "Approximate nr of groups:",
            "type": "integer"
        },
        "image_angpix": {
            "description": "Pixel size before extraction (A)",
            "type": "number"
        },
        "do_queue": {
            "description": "Submit to queue?",
            "type": "boolean"
        },
        "queuename": {
            "description": "Queue name:",
            "type": "string"
        },
        "qsub": {
            "description": "Queue submit command:",
            "type": "string"
        },
        "qsubscript": {
            "description": "Standard submission script:",
            "type": "string"
        },
        "min_dedicated": {
            "description": "Minimum dedicated cores per node:",
            "type": "integer"
        },
        "other_args": {
            "description": "Additional arguments:",
            "type": "string"
        }
    }
}