{
    "$schema": "http://json-schema.org/draft-04/schema#",
    "title": "PARAMS: relion.select.split",
    "description": "Split a large image set into smaller subsets",
    "type": "object",
    "properties": {
        "fn_model": {
            "description": "Select classes from optimiser.star:",
            "type": "string"
        },
        "fn_mic": {
            "description": "OR select from micrographs.star:",
            "type": "string"
        },
        "fn_data": {
            "description": "OR select from particles.star:",
            "type": "string"
        },
        "do_random": {
            "description": "Randomise order before making subsets?:",
            "type": "boolean"
        },
        "split_size": {
            "description": "Subset size:",
            "type": "integer"
        },
        "nr_split": {
            "description": "OR: number of subsets:",
            "type": "integer"
        },
        "do_regroup": {
            "description": "Regroup the particles?",
            "type": "boolean"
        },
        "nr_groups": {
            "description": "Approximate nr of groups:",
            "type": "integer"
        },
        "image_angpix": {
            "description": "Pixel size before extraction (A)",
            "type": "number"
        },
        "do_queue": {
            "description": "Submit to queue?",
            "type": "boolean"
        },
        "queuename": {
            "description": "Queue name:",
            "type": "string"
        },
        "qsub": {
            "description": "Queue submit command:",
            "type": "string"
        },
        "qsubscript": {
            "description": "Standard submission script:",
            "type": "string"
        },
        "min_dedicated": {
            "description": "Minimum dedicated cores per node:",
            "type": "integer"
        },
        "other_args": {
            "description": "Additional arguments:",
            "type": "string"
        }
    }
}