{
    "$schema": "http://json-schema.org/draft-04/schema#",
    "title": "PARAMS: modelcraft.atomic_model_build",
    "description": "Automated atomic model building with ModelCraft",
    "type": "object",
    "properties": {
        "job_title": {
            "description": "Job title",
            "type": "string"
        },
        "input_map1": {
            "description": "Input map 1 (half map 1 or full map)",
            "type": "string"
        },
        "input_half_map2": {
            "description": "Input map 2 (half map 2)",
            "type": "string"
        },
        "resolution": {
            "description": "Input map resolution",
            "type": "number"
        },
        "input_seq": {
            "description": "Input sequence",
            "type": "string"
        },
        "input_mask": {
            "description": "Input map mask",
            "type": "string"
        },
        "input_model": {
            "description": "Starting model",
            "type": "string"
        },
        "ncycle": {
            "description": "Max cycles of build-refine runs",
            "type": "integer"
        },
        "auto_stop_cycles": {
            "description": "Auto stop cycles without improvements",
            "type": "integer"
        },
        "map_sharpen": {
            "description": "B-factor to sharpen or blur",
            "type": "number"
        },
        "lib_in": {
            "description": "Ligand restraint dictionary file",
            "type": "string"
        },
        "nr_threads": {
            "description": "Number of threads:",
            "type": "integer"
        },
        "do_queue": {
            "description": "Submit to queue?",
            "type": "boolean"
        },
        "queuename": {
            "description": "Queue name:",
            "type": "string"
        },
        "qsub": {
            "description": "Queue submit command:",
            "type": "string"
        },
        "qsubscript": {
            "description": "Standard submission script:",
            "type": "string"
        },
        "min_dedicated": {
            "description": "Minimum dedicated cores per node:",
            "type": "integer"
        },
        "other_args": {
            "description": "Additional arguments:",
            "type": "string"
        }
    }
}