{
    "$schema": "http://json-schema.org/draft-04/schema#",
    "title": "cinderella.select.class_averages.train",
    "description": "Train a model for Cinderella 2D class selecton",
    "type": "object",
    "properties": {
        "run parameters": {
            "description": "Complete parameters used for running the job",
            "$ref": "parameters/params_cinderella_select_class_averages_train.json"
        },
        "results": {
            "description": "Data on the results of the job",
            "$ref": "results/results_cinderella_select_class_averages_train.json"
        }
    }
}