{
    "$schema": "http://json-schema.org/draft-04/schema#",
    "title": "cryolo.autopick",
    "description": "Automated particle picking",
    "type": "object",
    "properties": {
        "run parameters": {
            "description": "Complete parameters used for running the job",
            "$ref": "parameters/params_cryolo_autopick.json"
        },
        "results": {
            "description": "Data on the results of the job",
            "$ref": "results/results_cryolo_autopick.json"
        }
    }
}