{
    "$schema": "http://json-schema.org/draft-04/schema#",
    "title": "icebreaker.micrograph_analysis.particles",
    "description": "Assign ice thickness values to particles",
    "type": "object",
    "properties": {
        "run parameters": {
            "description": "Complete parameters used for running the job",
            "$ref": "parameters/params_icebreaker_micrograph_analysis_particles.json"
        },
        "results": {
            "description": "Data on the results of the job",
            "$ref": "results/results_icebreaker_micrograph_analysis_particles.json"
        }
    }
}