{
    "$schema": "http://json-schema.org/draft-04/schema#",
    "title": "modelcraft.atomic_model_build",
    "description": "Automated atomic model building with ModelCraft",
    "type": "object",
    "properties": {
        "run parameters": {
            "description": "Complete parameters used for running the job",
            "$ref": "parameters/params_modelcraft_atomic_model_build.json"
        },
        "results": {
            "description": "Data on the results of the job",
            "$ref": "results/results_modelcraft_atomic_model_build.json"
        }
    }
}