{
    "$schema": "http://json-schema.org/draft-04/schema#",
    "title": "pipeliner.image_analysis.average_particle_ps",
    "description": "Create average power spectrum for a set of aligned particles and analyse features",
    "type": "object",
    "properties": {
        "run parameters": {
            "description": "Complete parameters used for running the job",
            "$ref": "parameters/params_pipeliner_image_analysis_average_particle_ps.json"
        },
        "results": {
            "description": "Data on the results of the job",
            "$ref": "results/results_pipeliner_image_analysis_average_particle_ps.json"
        }
    }
}