{
    "$schema": "http://json-schema.org/draft-04/schema#",
    "title": "pipeliner.run_external_program",
    "description": "Run a program that is not part of doppio",
    "type": "object",
    "properties": {
        "run parameters": {
            "description": "Complete parameters used for running the job",
            "$ref": "parameters/params_pipeliner_run_external_program.json"
        },
        "results": {
            "description": "Data on the results of the job",
            "$ref": "results/results_pipeliner_run_external_program.json"
        }
    }
}