{
    "$schema": "http://json-schema.org/draft-04/schema#",
    "title": "process_predicted_model.atomic_model_utilities",
    "description": "Process predicted models for downstream model building",
    "type": "object",
    "properties": {
        "run parameters": {
            "description": "Complete parameters used for running the job",
            "$ref": "parameters/params_process_predicted_model_atomic_model_utilities.json"
        },
        "results": {
            "description": "Data on the results of the job",
            "$ref": "results/results_process_predicted_model_atomic_model_utilities.json"
        }
    }
}