{
    "$schema": "http://json-schema.org/draft-04/schema#",
    "title": "proshade.map_utilities.overlay",
    "description": "Overlay one map/model on another ",
    "type": "object",
    "properties": {
        "run parameters": {
            "description": "Complete parameters used for running the job",
            "$ref": "parameters/params_proshade_map_utilities_overlay.json"
        },
        "results": {
            "description": "Data on the results of the job",
            "$ref": "results/results_proshade_map_utilities_overlay.json"
        }
    }
}