{
    "$schema": "http://json-schema.org/draft-04/schema#",
    "title": "relion.joinstar.movies",
    "description": "Join multiple movie STAR files into a single file",
    "type": "object",
    "properties": {
        "run parameters": {
            "description": "Complete parameters used for running the job",
            "$ref": "parameters/params_relion_joinstar_movies.json"
        },
        "results": {
            "description": "Data on the results of the job",
            "$ref": "results/results_relion_joinstar_movies.json"
        }
    }
}