{
    "$schema": "http://json-schema.org/draft-04/schema#",
    "title": "relion.multibody.flexanalysis",
    "description": "Perform flexibility analysis on RELION multi-body refinement results",
    "type": "object",
    "properties": {
        "run parameters": {
            "description": "Complete parameters used for running the job",
            "$ref": "parameters/params_relion_multibody_flexanalysis.json"
        },
        "results": {
            "description": "Data on the results of the job",
            "$ref": "results/results_relion_multibody_flexanalysis.json"
        }
    }
}