{
    "$schema": "http://json-schema.org/draft-04/schema#",
    "title": "relion.extract",
    "description": "Extract particle images from micrographs",
    "type": "object",
    "properties": {
        "run parameters": {
            "description": "Complete parameters used for running the job",
            "$ref": "parameters/params_relion_extract.json"
        },
        "results": {
            "description": "Data on the results of the job",
            "$ref": "results/results_relion_extract.json"
        }
    }
}