{
    "$schema": "http://json-schema.org/draft-04/schema#",
    "title": "relion.postprocess",
    "description": "Create a sharpened and masked map from refinement results",
    "type": "object",
    "properties": {
        "run parameters": {
            "description": "Complete parameters used for running the job",
            "$ref": "parameters/params_relion_postprocess.json"
        },
        "results": {
            "description": "Data on the results of the job",
            "$ref": "results/results_relion_postprocess.json"
        }
    }
}