{
    "$schema": "http://json-schema.org/draft-04/schema#",
    "title": "relion.class2d.em",
    "description": "Reference-free particle classification in 2D using expectation maximization",
    "type": "object",
    "properties": {
        "run parameters": {
            "description": "Complete parameters used for running the job",
            "$ref": "parameters/params_relion_class2d_em.json"
        },
        "results": {
            "description": "Data on the results of the job",
            "$ref": "results/results_relion_class2d_em.json"
        }
    }
}