{
    "$schema": "http://json-schema.org/draft-04/schema#",
    "title": "relion.autopick.ref2d.helical",
    "description": "Autopicking with a set of 2-dimensional references",
    "type": "object",
    "properties": {
        "run parameters": {
            "description": "Complete parameters used for running the job",
            "$ref": "parameters/params_relion_autopick_ref2d_helical.json"
        },
        "results": {
            "description": "Data on the results of the job",
            "$ref": "results/results_relion_autopick_ref2d_helical.json"
        }
    }
}