{
    "$schema": "http://json-schema.org/draft-04/schema#",
    "title": "RESULTS: relion.autopick.log.helical",
    "description": "Reference-free Laplacian of Gaussian autopicking",
    "type": "object",
    "properties": null
}