{
    "$schema": "http://json-schema.org/draft-04/schema#",
    "title": "RESULTS: ccpem_utils.atomic_model_utilities.shift_origin_nstart",
    "description": "Translate model based on map origin or nstart header records, or by (x,y,z) Angstroms",
    "type": "object",
    "properties": null
}