{
    "$schema": "http://json-schema.org/draft-04/schema#",
    "title": "RESULTS: servalcat.map_utilities.trim",
    "description": "Trim a map to reduce box size for more efficient modeling operation",
    "type": "object",
    "properties": {
        "input_maps": {
            "type": "object",
            "additionalProperties": {
                "type": "object",
                "properties": {
                    "dimensions_voxel": {
                        "type": "object",
                        "description": "Map dimensions in voxels",
                        "properties": {
                            "x": {
                                "type": "number"
                            },
                            "y": {
                                "type": "number"
                            },
                            "z": {
                                "type": "number"
                            }
                        },
                        "required": ["x","y","z"]
                    },
                    "dimensions_angstrom": {
                        "type": "object",
                        "description": "Map dimensions in angstroms",
                        "properties": {
                            "x": {
                                "type": "number"
                            },
                            "y": {
                                "type": "number"
                            },
                            "z": {
                                "type": "number"
                            }
                        },
                        "required": [
                            "x",
                            "y",
                            "z"
                        ]
                    }
                },
                "required":[ "dimensions_voxel", "dimensions_angstrom"]
            }
        },
        "output_maps_dimensions":{
            "type": "object",
            "additionalProperties": {
                "type": "object",
                "properties": {
                    "dimensions_voxel": {
                        "type": "object",
                        "description": "Map dimensions in voxels",
                        "properties": {
                            "x": {
                                "type": "number"
                            },
                            "y": {
                                "type": "number"
                            },
                            "z": {
                                "type": "number"
                            }
                        },
                        "required": ["x","y","z"]
                    },
                    "dimensions_angstrom": {
                        "type": "object",
                        "description": "Map dimensions in angstroms",
                        "properties": {
                            "x": {
                                "type": "number"
                            },
                            "y": {
                                "type": "number"
                            },
                            "z": {
                                "type": "number"
                            }
                        },
                        "required": [
                            "x",
                            "y",
                            "z"
                        ]
                    }
                },
                "required":[ "dimensions_voxel", "dimensions_angstrom"]
            }
        }
    }
}