{
    "$schema": "http://json-schema.org/draft-04/schema#",
    "title": "RESULTS: icebreaker.micrograph_analysis.enhancecontrast",
    "description": "Flatten ice gradients to enhance micrograph contrast",
    "type": "object",
    "properties": null
}