{
    "$schema": "http://json-schema.org/draft-04/schema#",
    "title": "RESULTS: slice.atomic_model_split",
    "description": "Slice model into sub-domains ",
    "type": "object",
    "properties": null
}