{
    "$schema": "http://json-schema.org/draft-04/schema#",
    "title": "RESULTS: pipeliner.fetch.alphafold",
    "description": "Download predicted structures from the AlphaFold Protein Structure Database",
    "type": "object",
    "properties": null
}