{
    "$schema": "http://json-schema.org/draft-04/schema#",
    "title": "RESULTS: relion.map_utilities.rebox_rescale_map",
    "description": "Modify the box size of a map and change the pixel size if desired",
    "type": "object",
    "properties": null
}