{
    "$schema": "http://json-schema.org/draft-04/schema#",
    "title": "RESULTS: relion.refine3d.helical",
    "description": "Automatic refinement of a 3D volume from 2D helical segments",
    "type": "object",
    "properties": null
}