{
    "$schema": "http://json-schema.org/draft-04/schema#",
    "title": "RESULTS: relion.class3d.multiref",
    "description": "Heterogeneous classification of particles in 3D, using multiple references",
    "type": "object",
    "properties": null
}