{
    "$schema": "http://json-schema.org/draft-04/schema#",
    "title": "RESULTS: relion.map_utilities.apply_bfactor",
    "description": "Apply B-factor to a map",
    "type": "object",
    "properties": null
}