{
    "$schema": "http://json-schema.org/draft-04/schema#",
    "title": "RESULTS: relion.extract.helical",
    "description": "Particle extraction of overlapping helical segments",
    "type": "object",
    "properties": null
}