{
    "$schema": "http://json-schema.org/draft-04/schema#",
    "title": "RESULTS: relion.manualpick.helical",
    "description": "Manually pick particles from micrographs",
    "type": "object",
    "properties": null
}