{
    "$schema": "http://json-schema.org/draft-04/schema#",
    "title": "RESULTS: cinderella.select.class_averages",
    "description": "Automated selection of 2D classes",
    "type": "object",
    "properties": null
}