{
    "$schema": "http://json-schema.org/draft-04/schema#",
    "title": "RESULTS: repic.autopick.consensus",
    "description": "Use REPIC to create a consensus particle set from multipl pickers",
    "type": "object",
    "properties": null
}