{
    "$schema": "http://json-schema.org/draft-04/schema#",
    "title": "RESULTS: relion.class3d.helical.multiref",
    "description": "Heterogeneous classification of overlapping helical segments in 3D, using multiple references",
    "type": "object",
    "properties": null
}